[
    {
        "m/c": "M",
        "repeat": "1",
        "segments": [
            {
                "code": "2005",
                "m/c": "M",
                "repr": "an..3",
                "coded": true
            },
            {
                "code": "2380",
                "m/c": "C",
                "repr": "an..35",
                "coded": false
            },
            {
                "code": "2379",
                "m/c": "C",
                "repr": "an..3",
                "coded": false
            }
        ]
    }
]