[
    {
        "m/c": "C",
        "repeat": "1",
        "segments": [
            {
                "code": "1082",
                "m/c": "C",
                "repr": "an..6",
                "coded": false
            }
        ]
    },
    {
        "m/c": "C",
        "repeat": "1",
        "segments": [
            {
                "code": "1129",
                "m/c": "C",
                "repr": "an..3",
                "coded": true
            }
        ]
    },
    {
        "m/c": "C",
        "repeat": "1",
        "segments": [
            {
                "code": "7140",
                "m/c": "C",
                "repr": "an..35",
                "coded": false
            },
            {
                "code": "7143",
                "m/c": "C",
                "repr": "an..3",
                "coded": true
            },
            {
                "code": "1131",
                "m/c": "C",
                "repr": "an..3",
                "coded": true
            },
            {
                "code": "3055",
                "m/c": "C",
                "repr": "an..3",
                "coded": true
            }
        ]
    },
    {
        "m/c": "C",
        "repeat": "1",
        "segments": [
            {
                "code": "5495",
                "m/c": "C",
                "repr": "an..3",
                "coded": true
            },
            {
                "code": "1082",
                "m/c": "C",
                "repr": "an..6",
                "coded": false
            }
        ]
    },
    {
        "m/c": "C",
        "repeat": "1",
        "segments": [
            {
                "code": "1222",
                "m/c": "C",
                "repr": "n..2",
                "coded": false
            }
        ]
    },
    {
        "m/c": "C",
        "repeat": "1",
        "segments": [
            {
                "code": "7083",
                "m/c": "C",
                "repr": "an..3",
                "coded": true
            }
        ]
    }
]